<?xml version="1.0" encoding="UTF-8" standalone="no"?>
<svg
   sodipodi:docname="cart sticker.svg"
   inkscape:version="1.1 (c68e22c387, 2021-05-23)"
   id="svg1642"
   version="1.1"
   viewBox="0 0 70 70"
   height="70mm"
   width="70mm"
   xmlns:inkscape="http://www.inkscape.org/namespaces/inkscape"
   xmlns:sodipodi="http://sodipodi.sourceforge.net/DTD/sodipodi-0.dtd"
   xmlns="http://www.w3.org/2000/svg"
   xmlns:svg="http://www.w3.org/2000/svg"
   xmlns:rdf="http://www.w3.org/1999/02/22-rdf-syntax-ns#"
   xmlns:cc="http://creativecommons.org/ns#"
   xmlns:dc="http://purl.org/dc/elements/1.1/">
  <defs
     id="defs1636">
    <inkscape:path-effect
       fuse_tolerance="0"
       hide_knot="false"
       vertical_pattern="false"
       prop_units="false"
       tang_offset="0"
       normal_offset="0"
       spacing="0"
       scale_y_rel="false"
       prop_scale="1"
       copytype="single_stretched"
       pattern="M 0,5 C 0,2.24 2.24,0 5,0 7.76,0 10,2.24 10,5 10,7.76 7.76,10 5,10 2.24,10 0,7.76 0,5 Z"
       lpeversion="1"
       is_visible="true"
       id="path-effect2278"
       effect="skeletal" />
  </defs>
  <sodipodi:namedview
     inkscape:window-maximized="1"
     inkscape:window-y="1341"
     inkscape:window-x="-9"
     inkscape:window-height="1001"
     inkscape:window-width="1920"
     showgrid="false"
     inkscape:document-rotation="0"
     inkscape:current-layer="layer1"
     inkscape:document-units="mm"
     inkscape:cy="113.75"
     inkscape:cx="148.39286"
     inkscape:zoom="2.8"
     inkscape:pageshadow="2"
     inkscape:pageopacity="0.0"
     borderopacity="1.0"
     bordercolor="#666666"
     pagecolor="#ffffff"
     id="base"
     inkscape:pagecheckerboard="0"
     width="70mm" />
  <metadata
     id="metadata1639">
    <rdf:RDF>
      <cc:Work
         rdf:about="">
        <dc:format>image/svg+xml</dc:format>
        <dc:type
           rdf:resource="http://purl.org/dc/dcmitype/StillImage" />
      </cc:Work>
    </rdf:RDF>
  </metadata>
  <g
     id="layer1"
     inkscape:groupmode="layer"
     inkscape:label="Warstwa 1">
    <g
       id="g3118">
      <rect
         style="fill:#000000;stroke:#ffffff;stroke-width:0.23703;paint-order:stroke fill markers"
         id="rect2205-3"
         width="60.26297"
         height="58.76297"
         x="4.868515"
         y="5.6185126"
         ry="3.9359491" />
      <path
         style="fill:#002428;fill-opacity:1;stroke:none;stroke-width:0.334061px;stroke-linecap:butt;stroke-linejoin:miter;stroke-opacity:1"
         d="M 51.14383,64.395512 C 8.212859,54.382934 26.992149,13.993865 53.7618,37.28047 35.9244,5.6512145 3.755962,40.889811 19.972455,64.361189 Z"
         id="path2280-7"
         sodipodi:nodetypes="cccc" />
      <path
         style="fill:#003d44;fill-opacity:1;stroke:none;stroke-width:0.193381px;stroke-linecap:butt;stroke-linejoin:miter;stroke-opacity:1"
         d="m 7.851304,64.33399 c 10.378866,-6.08135 3.678377,-16.26445 1.550748,-17.23201 4.253599,0.56385 7.604598,4.40775 9.493471,9.2835 0.719576,1.85744 0.822687,6.69107 6.577018,7.94135 z"
         id="path893"
         sodipodi:nodetypes="ccccc" />
      <path
         style="fill:#003d44;fill-opacity:1;stroke:none;stroke-width:0.136927px;stroke-linecap:butt;stroke-linejoin:miter;stroke-opacity:1"
         d="M 60.15543,64.34917 C 54.00926,62.42854 48.13978,48.05461 60.8563,48.91174 48.95532,43.83863 45.38824,59.66507 50.92959,64.36078 Z"
         id="path891"
         sodipodi:nodetypes="cccc" />
      <g
         id="g1236"
         transform="matrix(0.59237328,0,0,0.64111338,-26.373804,-8.21887)">
        <path
           sodipodi:nodetypes="scsssscccssssssscss"
           d="m 58.642267,21.600601 c -2.713229,0 -5.005421,1.732807 -5.839437,4.155818 1.312391,6.427822 34.786606,2.780915 42.159773,5.977891 1.587236,0.688218 -1.532715,9.300689 1.70429,8.361246 1.904598,-0.552751 -1.134031,-8.028387 1.635559,-8.279079 5.706468,-0.516533 -13.054572,1.393816 -7.640951,0.582466 6.906439,-1.035084 13.582629,-1.717093 14.552599,-0.53485 0.71628,11.067682 -1.3577,13.742742 0.8971,13.888779 2.06509,0.146034 -0.49211,-12.377196 2.27222,-14.36007 0,0 8.70464,-1.114898 14.77015,-0.518387 1.3274,0.130542 0.15757,7.887375 1.57665,7.990872 1.62406,0.118449 0.15447,-7.989526 1.79834,-7.934545 1.60285,0.0536 12.77229,1.568102 15.69465,1.67284 1.4255,0.05109 -0.006,6.214025 1.23506,6.224426 1.38032,0.01157 0.64738,-6.986757 1.37098,-7.070886 4.07328,-0.473599 4.64397,-0.720072 6.48178,-2.134789 1.16914,-0.899983 2.50952,-2.397598 3.04942,-3.885551 -0.83961,-2.412744 -3.12681,-4.136181 -5.83271,-4.136181 z"
           style="fill:#492004;fill-opacity:1;stroke:none;stroke-width:0.386779;paint-order:stroke fill markers"
           id="rect2205-8" />
        <path
           id="rect2205"
           style="fill:#7b3508;fill-opacity:1;stroke:none;stroke-width:0.386779;paint-order:stroke fill markers"
           d="m 58.642267,21.600601 c -2.713228,0 -5.00542,1.732807 -5.839436,4.155818 1.312391,6.427822 12.259225,5.199963 19.632392,8.396939 1.587236,0.688218 -1.532715,9.300689 1.70429,8.361246 1.904598,-0.552751 -1.134031,-8.028387 1.635559,-8.279079 5.706467,-0.516533 17.410308,-1.025232 22.823929,-1.836582 6.906439,-1.035084 13.582629,-1.717093 14.552599,-0.53485 0.71628,11.067682 -1.3577,21.302266 0.8971,21.448302 2.06509,0.146035 -0.49211,-19.936719 2.27222,-21.919593 0,0 4.73589,0.774983 10.8014,1.371494 1.3274,0.130542 0.15757,9.134697 1.57665,9.238194 1.62406,0.118449 0.15447,-9.236848 1.79834,-9.181867 1.60285,0.0536 4.57021,0.207388 7.49257,0.312126 1.4255,0.05109 -0.006,9.918192 1.23506,9.928593 1.38032,0.01157 0.64738,-10.690924 1.37098,-10.775053 4.07328,-0.473599 8.8773,-1.249239 10.71511,-2.663956 1.16914,-0.899983 2.50952,-2.397598 3.04942,-3.885551 -0.83961,-2.412744 -3.12681,-4.136181 -5.83271,-4.136181 z"
           sodipodi:nodetypes="scsssscccssssssscss" />
      </g>
      <path
         sodipodi:nodetypes="cccc"
         id="path2280"
         d="M 25.472541,64.32683 C 47.21161,53.30593 34.13839,32.36027 18.036198,47.23548 31.29173,25.39955 55.78931,48.14754 43.73832,64.35151 Z"
         style="fill:#003d44;fill-opacity:1;stroke:none;stroke-width:0.239276px;stroke-linecap:butt;stroke-linejoin:miter;stroke-opacity:1" />
      <g
         transform="matrix(0.27670809,0,0,0.27670809,5.168552,20.29442)"
         id="g872">
        <path
           sodipodi:nodetypes="ccccccccccccc"
           style="fill:#de87aa;stroke:none;stroke-width:0.128363px;stroke-linecap:butt;stroke-linejoin:miter;stroke-opacity:1"
           d="m 36.27853,20.476282 33.07613,-0.12995 -0.54671,20.66218 -19.81835,-2.46906 0.27336,5.84779 17.76817,2.46907 -0.68339,19.62258 -18.45156,-2.46907 v 22.611446 c -6.34348,-0.99454 -12.49527,-2.47804 -18.58824,-4.28838 l 3.00692,-33.267416 3.28028,-19.88248 z"
           id="path34" />
        <path
           sodipodi:nodetypes="cccccccccccccc"
           id="path32"
           d="m 32.31486,21.385932 35.53634,0.90966 -1.77682,19.10278 -18.99827,-2.33912 -0.13668,6.10769 18.8616,3.50868 -2.18685,17.80327 -16.81143,-1.42946 -2.05017,21.441886 -12.5744,-1.29951 -6.56055,-1.94926 3.82699,-25.470366 2.18685,-27.67954 z"
           style="fill:#a02c5a;stroke:none;stroke-width:0.128363px;stroke-linecap:butt;stroke-linejoin:miter;stroke-opacity:1" />
        <path
           sodipodi:nodetypes="ccccc"
           id="path36"
           d="m 92.600037,19.306722 1.2301,64.715536 -12.43772,0.12995 -9.534227,-63.720796 z"
           style="fill:#de87aa;stroke:none;stroke-width:0.128363px;stroke-linecap:butt;stroke-linejoin:miter;stroke-opacity:1" />
        <path
           id="path40"
           d="m 89.592757,20.247632 -17.734567,0.18378 4.193697,64.500506 16.67475,0.25989 -2.05017,-12.995076 z"
           style="fill:#a02c5a;stroke:none;stroke-width:0.128363px;stroke-linecap:butt;stroke-linejoin:miter;stroke-opacity:1" />
        <path
           sodipodi:nodetypes="cccczzzzzzzzzzczzzzzzzzzzzzzcccz"
           d="m 150.35233,20.235066 2.46009,13.51501 2.05015,51.330556 10.52419,0.51974 c 0,0 10.41171,-1.03563 14.21458,-2.72898 3.80287,-1.693346 6.52322,-3.544046 8.3373,-6.367666 1.81407,-2.82361 1.89624,-6.30668 2.05019,-9.48639 0.15396,-3.17972 -1.45313,-8.03131 -2.73352,-10.78578 -1.28039,-2.75448 -5.07122,-4.32956 -7.38049,-5.84781 -2.30927,-1.51826 -5.3981,1.45452 -4.37367,0.64975 1.02444,-0.80478 4.14693,-4.89531 5.33029,-5.45787 1.18334,-0.56254 1.73298,-11.18982 0.2733,-14.68452 -1.45967,-3.4947 -3.32664,-4.52811 -6.56058,-6.36758 -3.23394,-1.83948 -8.6509,-2.81841 -12.71083,-3.50863 -4.05993,-0.69021 -11.481,-0.77983 -11.481,-0.77983 z m 11.75418,14.03463 c 1.06036,-0.47045 3.87882,-0.008 5.19388,0.64988 1.31505,0.658 2.14338,1.5532 2.46008,2.5991 0.31671,1.0459 -0.0862,2.11132 -0.54652,2.98884 -0.46037,0.87752 -1.02042,1.55147 -2.05042,2.07906 -1.02999,0.52758 -2.25413,1.69962 -3.96361,0.64981 -1.70947,-1.0498 -2.30969,-5.97669 -2.05015,-7.53723 0.25954,-1.56054 -0.10361,-0.95901 0.95674,-1.42946 z m 8.47401,25.3405 c 1.52758,0.18643 2.42164,0.84702 3.55375,1.81936 1.13212,0.97234 2.57324,2.60371 2.87027,4.02837 0.29703,1.42466 0.0379,2.44928 -0.8202,3.76874 -0.85807,1.31946 -2.66433,2.68165 -4.51027,3.37853 -1.84594,0.69689 -6.15064,0.51983 -6.15064,0.51983 l -0.27318,-4.67821 0.27323,-7.66699 c 0,0 3.52946,-1.35605 5.05704,-1.16963 z"
           style="opacity:1;fill:#de87aa;stroke:none;stroke-width:0.128363px;stroke-linecap:butt;stroke-linejoin:miter;stroke-opacity:1"
           id="path42" />
        <path
           sodipodi:nodetypes="ccczzzzzzczzzzzczzzzzcczzzzzzcccz"
           id="path51"
           style="opacity:1;fill:#a02c5a;stroke:none;stroke-width:0.128363px;stroke-linecap:butt;stroke-linejoin:miter;stroke-opacity:1"
           d="m 148.62814,20.133207 1.91337,13.12515 3.14359,52.889966 c 0,0 8.10767,0.1621 12.71104,-0.38992 4.60337,-0.55201 11.42499,-1.40353 14.76128,-3.11883 3.3363,-1.715286 4.12421,-2.269926 5.46706,-5.068156 1.34285,-2.79822 0.94006,-7.81519 0.68341,-11.17575 -0.25664,-3.36057 -0.67903,-6.27649 -1.91345,-8.83652 -1.23443,-2.56003 -3.58091,-4.70386 -5.05696,-6.23766 -1.47604,-1.5338 -3.5536,-3.11883 -3.5536,-3.11883 0,0 1.55016,-1.74796 2.05001,-2.85884 0.49985,-1.11088 1.19965,-1.18025 1.23028,-3.50887 0.0306,-2.32862 -0.43447,-8.22424 -1.91372,-11.04571 -1.47924,-2.82147 -2.62451,-3.73787 -5.60384,-5.58788 -2.97933,-1.85 -8.40434,-3.47259 -12.43747,-4.28833 -4.03314,-0.81573 -11.481,-0.77982 -11.481,-0.77982 z m 12.57425,13.90467 c 0.97321,-0.22432 3.1927,0.14918 4.3738,0.77983 1.18111,0.63065 2.09242,1.50393 2.46009,2.59911 0.36767,1.09517 0.10881,2.32394 -0.40984,3.37869 -0.51865,1.05474 -1.6093,2.11413 -2.59713,2.59886 -0.98784,0.48472 -2.87018,0.38991 -2.87018,0.38991 -2.0073,-2.13528 -2.35171,-5.3246 -2.18678,-8.83676 0,0 0.25684,-0.68532 1.23004,-0.90964 z m 7.79062,27.15982 c 1.35386,0.18786 2.36344,0.4247 3.41707,1.29955 1.05363,0.87485 2.10553,2.54718 2.32356,3.89842 0.21802,1.35124 0.16528,2.11295 -0.8202,3.63879 -0.98548,1.52584 -2.18917,2.98423 -4.10024,3.76838 -1.91106,0.78416 -5.7406,0.77973 -5.7406,0.77973 l -0.40986,-5.97771 0.81994,-7.01725 c 0,0 3.15647,-0.57777 4.51033,-0.38991 z" />
        <path
           sodipodi:nodetypes="sssss"
           d="m 150.04742,68.106722 c -0.004,12.91541 -11.07058,19.791046 -30.06921,18.777896 -15.13511,-0.80711 -22.304603,-6.161516 -23.371983,-20.077406 -1.26571,-16.50167 17.902763,-18.41212 30.342573,-19.42766 18.07562,-1.47563 23.10226,9.20744 23.09862,20.72717 z"
           style="fill:#a02c5a;stroke:none;stroke-width:0.807775;stroke-linejoin:round;paint-order:stroke fill markers"
           id="path53" />
        <path
           id="path56"
           style="fill:#de87aa;stroke:none;stroke-width:0.803283;stroke-linejoin:round;paint-order:stroke fill markers"
           d="m 149.1703,64.857942 c 0.12424,9.27604 -13.40521,20.388406 -28.91547,20.207366 -16.0777,-0.18767 -21.422173,-5.549926 -22.019193,-13.709816 -1.01438,-13.86413 14.289753,-21.91668 30.279213,-23.71604 8.31137,-0.93531 20.48469,4.46905 20.65545,17.21849 z"
           sodipodi:nodetypes="sssss" />
        <path
           sodipodi:nodetypes="sssss"
           d="m 130.50243,60.585332 c -0.002,3.73347 -1.33934,5.81637 -3.55364,6.04272 -1.7897,0.18294 -4.37636,-1.91424 -4.92041,-5.78282 -0.51523,-3.66354 -0.15463,-6.64771 3.55363,-6.56252 3.56856,0.082 4.92197,2.64341 4.92042,6.30262 z"
           style="fill:#e2dbe3;stroke:none;stroke-width:0.807775;stroke-linejoin:round;paint-order:stroke fill markers"
           id="path58" />
        <path
           id="path61"
           style="fill:#e2dbe3;stroke:none;stroke-width:0.807775;stroke-linejoin:round;paint-order:stroke fill markers"
           d="m 143.07683,59.789862 c -0.001,3.73347 -0.9293,6.33618 -3.1436,6.56252 -1.78971,0.18294 -4.37636,-2.56399 -4.92042,-6.43257 -0.51522,-3.66354 0.25541,-5.73805 3.96367,-5.65287 3.56856,0.082 4.1019,1.86372 4.10035,5.52292 z"
           sodipodi:nodetypes="sssss" />
        <path
           sodipodi:nodetypes="czzczzzcc"
           id="path63"
           d="m 134.26108,58.230452 c 0.82007,0 1.94219,-1.36271 2.87024,-1.83046 0.92806,-0.46775 1.88678,-0.64868 2.94344,-0.75279 1.05667,-0.10412 2.86539,-0.0919 2.86539,-0.0919 0,0 -1.19193,-1.90325 -2.18685,-2.58788 -0.99492,-0.68462 -1.97124,-0.44718 -3.07526,-0.38985 -1.10402,0.0573 -1.83831,0.5685 -2.66523,1.68936 -0.82691,1.12087 -1.2301,3.50868 -0.75173,3.96351 z"
           style="fill:#c83771;stroke:none;stroke-width:0.128363px;stroke-linecap:butt;stroke-linejoin:miter;stroke-opacity:1" />
        <path
           style="fill:#c83771;stroke:none;stroke-width:0.133565px;stroke-linecap:butt;stroke-linejoin:miter;stroke-opacity:1"
           d="m 131.05986,58.522582 c 0,0 -1.40038,-1.16025 -2.47123,-1.46827 -1.07086,-0.30801 -3.14098,-0.39919 -4.28776,-0.32701 -1.14678,0.0722 -2.88402,0.24206 -2.88402,0.24206 0,0 0.0257,-1.81821 0.97306,-2.65864 0.94738,-0.84043 1.58459,-1.09793 2.77406,-1.22413 1.18947,-0.12619 2.27388,-0.29545 3.34713,0.67392 1.07325,0.96938 3.64218,4.63212 2.54876,4.76207 z"
           id="path888"
           sodipodi:nodetypes="czzczzzc" />
        <ellipse
           ry="3.1242311"
           rx="1.9812452"
           cy="61.645042"
           cx="127.66302"
           id="path890"
           style="fill:#c83771;stroke:none;stroke-width:0.839218;stroke-linejoin:round;paint-order:stroke fill markers" />
        <ellipse
           ry="3.1701756"
           rx="1.8362761"
           cy="61.231544"
           cx="140.48521"
           id="path892"
           style="fill:#c83771;stroke:none;stroke-width:0.807775;stroke-linejoin:round;paint-order:stroke fill markers" />
        <ellipse
           ry="1.194559"
           rx="1.2080765"
           cy="61.736946"
           cx="128.04961"
           id="path894"
           style="fill:#221c24;stroke:none;stroke-width:0.807775;stroke-linejoin:round;paint-order:stroke fill markers" />
        <ellipse
           style="fill:#221c24;stroke:none;stroke-width:0.807775;stroke-linejoin:round;paint-order:stroke fill markers"
           id="ellipse896"
           cx="140.72684"
           cy="61.461266"
           rx="1.2080765"
           ry="1.194559" />
      </g>
      <g
         style="font-style:normal;font-variant:normal;font-weight:bold;font-stretch:normal;font-size:9.42565px;line-height:1.25;font-family:'Open Sans';-inkscape-font-specification:'Open Sans Bold';font-variant-ligatures:normal;font-variant-caps:normal;font-variant-numeric:normal;font-feature-settings:normal;text-align:start;letter-spacing:0px;word-spacing:0px;writing-mode:lr-tb;text-anchor:start;fill:#c8b7b7;fill-opacity:0.806283;stroke:none;stroke-width:0.13206"
         id="text2272"
         aria-label="ATARI XL/XE GAME"
         transform="matrix(0.52514725,0,0,0.52514725,-19.69557,0.95737)">
        <path
           id="path858"
           style="font-style:normal;font-variant:normal;font-weight:bold;font-stretch:normal;font-family:'Berlin Sans FB Demi';-inkscape-font-specification:'Berlin Sans FB Demi Bold';text-align:center;text-anchor:middle;fill:#c8b7b7;fill-opacity:0.806283;stroke:none;stroke-width:0.13206"
           d="m 68.176379,106.54342 q 0,0.0828 -0.115059,0.11506 -0.138071,0.0368 -0.85604,0.0368 -0.658139,0 -0.846836,-0.0368 -0.156481,-0.0322 -0.197902,-0.20711 -0.15648,-0.66274 -0.243925,-0.70876 -0.07364,-0.0322 -1.233435,-0.0322 -0.782403,0 -0.833029,0.0414 -0.07824,0.0736 -0.17489,0.49245 -0.08745,0.382 -0.211709,0.41422 -0.15648,0.0368 -1.049339,0.0368 -0.704163,0 -0.704163,-0.13347 0,-0.11966 1.040135,-2.94092 1.127581,-3.05137 1.22423,-3.35512 0.05523,-0.17489 0.128867,-0.17489 0.124264,0 0.381996,0.023 0.262335,0.023 0.391201,0.023 0.124264,0 0.363588,-0.0138 0.243925,-0.0184 0.363587,-0.0184 0.08745,0 0.161082,0.15187 0.225517,0.48325 1.316278,3.31371 1.095363,2.84886 1.095363,2.97313 z M 64.9133,102.35066 q -0.09665,0.20251 -0.326768,0.87905 -0.248528,0.71797 -0.248528,0.84224 0,0.0828 0.276142,0.092 0.142674,0.009 0.469442,0.009 0.303756,0 0.335973,-0.0736 0.0092,-0.023 0.0092,-0.0644 0,-0.15188 -0.211709,-0.83763 -0.207107,-0.66274 -0.303757,-0.84684 z" />
        <path
           id="path860"
           style="font-style:normal;font-variant:normal;font-weight:bold;font-stretch:normal;font-family:'Berlin Sans FB Demi';-inkscape-font-specification:'Berlin Sans FB Demi Bold';text-align:center;text-anchor:middle;fill:#c8b7b7;fill-opacity:0.806283;stroke:none;stroke-width:0.13206"
           d="m 73.123925,101.60968 q 0,0.0921 -0.101252,0.0921 -0.17489,0 -1.385313,-0.069 -0.02761,1.1644 -0.02761,1.62464 0,0.54308 0.04142,1.63384 0.04602,1.09076 0.04602,1.63384 0,0.0874 -0.04142,0.11046 -0.01381,0.009 -0.128867,0.023 -0.276142,0.0368 -0.810016,0.0368 -0.593706,0 -0.833029,-0.0368 -0.128866,-0.023 -0.128866,-0.14268 0,-0.54308 0.04602,-1.62923 0.04602,-1.08616 0.04602,-1.62924 0,-0.35899 -0.03682,-1.60163 -0.920473,0.0921 -1.468155,0.0921 -0.07364,0 -0.07364,-0.046 0,-0.0598 0.06443,-0.35438 0.07364,-0.32217 0.08284,-0.39121 0.01381,-0.21631 0.03222,-0.43262 0.03222,-0.34518 0.110457,-0.34518 0.0092,0 0.06443,0.005 0.745584,0.0966 2.204534,0.0966 0.414214,0 1.527987,-0.0875 0.598307,-0.046 0.60291,-0.046 0.09205,0 0.105854,0.0138 0.01381,0.009 0.01841,0.0875 0,0.12426 -0.0092,0.34518 -0.0092,0.24392 -0.0092,0.34517 0,0.11506 0.02761,0.34058 0.03222,0.22091 0.03222,0.33137 z" />
        <path
           id="path862"
           style="font-style:normal;font-variant:normal;font-weight:bold;font-stretch:normal;font-family:'Berlin Sans FB Demi';-inkscape-font-specification:'Berlin Sans FB Demi Bold';text-align:center;text-anchor:middle;fill:#c8b7b7;fill-opacity:0.806283;stroke:none;stroke-width:0.13206"
           d="m 79.6823,106.54342 q 0,0.0828 -0.115059,0.11506 -0.138072,0.0368 -0.856041,0.0368 -0.658139,0 -0.846836,-0.0368 -0.15648,-0.0322 -0.197901,-0.20711 -0.156481,-0.66274 -0.243926,-0.70876 -0.07364,-0.0322 -1.233435,-0.0322 -0.782402,0 -0.833028,0.0414 -0.07824,0.0736 -0.17489,0.49245 -0.08745,0.382 -0.211709,0.41422 -0.156481,0.0368 -1.04934,0.0368 -0.704162,0 -0.704162,-0.13347 0,-0.11966 1.040135,-2.94092 1.12758,-3.05137 1.22423,-3.35512 0.05523,-0.17489 0.128866,-0.17489 0.124264,0 0.381997,0.023 0.262335,0.023 0.391201,0.023 0.124264,0 0.363587,-0.0138 0.243925,-0.0184 0.363587,-0.0184 0.08745,0 0.161083,0.15187 0.225516,0.48325 1.316277,3.31371 1.095364,2.84886 1.095364,2.97313 z m -3.263079,-4.19276 q -0.09665,0.20251 -0.326768,0.87905 -0.248528,0.71797 -0.248528,0.84224 0,0.0828 0.276142,0.092 0.142673,0.009 0.469441,0.009 0.303757,0 0.335973,-0.0736 0.0092,-0.023 0.0092,-0.0644 0,-0.15188 -0.211709,-0.83763 -0.207106,-0.66274 -0.303756,-0.84684 z" />
        <path
           id="path864"
           style="font-style:normal;font-variant:normal;font-weight:bold;font-stretch:normal;font-family:'Berlin Sans FB Demi';-inkscape-font-specification:'Berlin Sans FB Demi Bold';text-align:center;text-anchor:middle;fill:#c8b7b7;fill-opacity:0.806283;stroke:none;stroke-width:0.13206"
           d="m 85.633161,106.61245 q 0,0.0322 -0.09205,0.046 -0.17489,0.0276 -0.879052,0.0276 -0.602911,0 -0.819222,-0.0276 -0.101252,-0.0138 -0.115059,-0.023 -0.02761,-0.0138 -0.06443,-0.0921 -0.06904,-0.17949 -0.202504,-0.53388 -0.179493,-0.46023 -0.561489,-1.35769 -0.08284,-0.1795 -0.381997,-0.19791 0.138071,0.009 -0.474044,0.009 -0.06903,0 -0.06903,0.23472 0,0.31296 0.05523,0.93428 0.05983,0.62132 0.05983,0.93428 0,0.0782 -0.04142,0.0921 -0.06443,0.005 -0.128867,0.009 -0.271539,0.0184 -0.846835,0.0184 -0.658139,0 -0.791608,-0.0276 -0.133468,-0.0276 -0.133468,-0.14268 0,-0.50626 0.04602,-1.52798 0.05063,-1.02173 0.05063,-1.53259 0,-1.9468 -0.08744,-3.03756 l -0.0046,-0.0644 q -0.0046,-0.0782 0.142673,-0.10585 0.151879,-0.0276 1.408325,-0.0552 0.851438,-0.0184 1.357699,-0.0184 1.049339,0 1.71208,0.47405 0.750186,0.53387 0.750186,1.54179 0,0.67194 -0.193299,1.07235 -0.1933,0.40041 -0.713367,0.7778 -0.105855,0.0736 -0.105855,0.13807 0,-0.005 0.561489,1.1552 0.561489,1.15979 0.561489,1.27945 z m -1.932994,-4.12832 q 0,-0.56149 -0.36819,-0.7778 -0.285347,-0.16569 -0.892859,-0.16569 -0.437225,0 -0.464839,0.13347 -0.02761,0.15648 -0.02761,0.90207 0,0.10585 0.0046,0.31296 0.0046,0.2071 0.0046,0.30836 0,0.023 0.147276,0.046 0.280744,0.0414 0.589103,0.0414 1.007919,0 1.007919,-0.80081 z" />
        <path
           id="path866"
           style="font-style:normal;font-variant:normal;font-weight:bold;font-stretch:normal;font-family:'Berlin Sans FB Demi';-inkscape-font-specification:'Berlin Sans FB Demi Bold';text-align:center;text-anchor:middle;fill:#c8b7b7;fill-opacity:0.806283;stroke:none;stroke-width:0.13206"
           d="m 88.017188,103.25733 q 0,0.54308 0.02761,1.63384 0.02761,1.09076 0.02761,1.63384 0,0.0921 -0.04142,0.11506 -0.0092,0.005 -0.119662,0.0184 -0.299154,0.0368 -0.800812,0.0368 -0.671945,0 -0.85604,-0.0368 -0.133469,-0.0276 -0.133469,-0.14268 0,0.0736 0.04142,-0.81001 0.08284,-1.86396 0.08284,-2.44846 0,-0.49246 -0.03222,-1.47736 -0.03222,-0.98491 -0.03222,-1.47736 0,-0.10125 0.105854,-0.10125 0.142674,0 0.428021,0.0138 0.289949,0.0138 0.432622,0.0138 0.142674,0 0.418816,-0.0138 0.280744,-0.0138 0.423418,-0.0138 0.133468,0 0.133468,0.10125 0,0.49245 -0.05523,1.47736 -0.05063,0.9849 -0.05063,1.47736 z" />
        <path
           id="path868"
           style="font-style:normal;font-variant:normal;font-weight:bold;font-stretch:normal;font-family:'Berlin Sans FB Demi';-inkscape-font-specification:'Berlin Sans FB Demi Bold';text-align:center;text-anchor:middle;fill:#c8b7b7;fill-opacity:0.806283;stroke:none;stroke-width:0.13206"
           d="m 96.402702,106.04636 q 0,0.45103 -0.04142,0.53388 -0.05063,0.10125 -0.312961,0.10125 -0.04142,0 -0.184095,0 -0.138071,-0.005 -0.234721,-0.005 -0.09205,0 -0.280744,-0.009 -0.184095,-0.009 -0.276142,-0.009 -0.07364,0 -0.662741,-0.88366 -0.589103,-0.88365 -0.612115,-0.88825 -0.09665,0.0782 -0.662741,0.92967 -0.54308,0.81462 -0.635127,0.84224 -0.06443,0.0184 -0.345178,0.0184 -0.943485,0 -0.943485,-0.0966 0,-0.0966 -0.01381,-0.27614 -0.0092,-0.1795 -0.0092,-0.26694 0,-0.5707 0.06904,-0.67195 0.0046,-0.005 0.75939,-1.00792 0.612115,-0.81001 0.612115,-0.92507 0,-0.11506 -0.612115,-0.91127 -0.386599,-0.49245 -0.768595,-0.98951 -0.04142,-0.0598 -0.05063,-0.1979 -0.0046,-0.0966 0,-0.26234 0.01381,-0.1979 0.01381,-0.22091 0,-0.0921 -0.01841,-0.28535 -0.01381,-0.1933 -0.01381,-0.28534 0,-0.0875 0.161083,-0.0875 0.105855,0 0.312961,0.0138 0.207107,0.0138 0.308359,0.0138 0.09205,0 0.27154,-0.009 0.179492,-0.009 0.266937,-0.009 0.07364,0 0.667343,0.89746 0.598308,0.89286 0.625922,0.89286 0.09205,-0.0552 0.676548,-0.93889 0.556887,-0.85143 0.63973,-0.85143 h 1.09536 q 0.161083,0 0.161083,0.0782 v 1.11837 q 0,0.11966 -0.713367,1.04474 -0.708765,0.92507 -0.708765,0.9803 0,0.0782 0.625922,0.90667 0.736379,0.9711 0.768596,1.01712 0.06443,0.10126 0.06443,0.69956 z" />
        <path
           id="path870"
           style="font-style:normal;font-variant:normal;font-weight:bold;font-stretch:normal;font-family:'Berlin Sans FB Demi';-inkscape-font-specification:'Berlin Sans FB Demi Bold';text-align:center;text-anchor:middle;fill:#c8b7b7;fill-opacity:0.806283;stroke:none;stroke-width:0.13206"
           d="m 101.36866,106.73672 q -0.39581,0 -1.03093,-0.0184 -0.828429,-0.0184 -1.030933,-0.023 l -1.376108,-0.0184 q -0.207106,0.005 -0.593705,-0.0184 -0.133469,-0.023 -0.133469,-0.14268 0,-0.50165 0.01381,-1.50037 0.01841,-1.00331 0.01841,-1.50497 0,-0.53388 -0.03222,-1.59702 -0.03222,-1.06775 -0.03222,-1.60163 0,-0.10125 0.138071,-0.10125 0.138071,0 0.40961,0.0138 0.276142,0.0138 0.409611,0.0138 0.151878,0 0.451032,-0.0138 0.299154,-0.0184 0.451032,-0.0184 0.06904,0 0.06443,0.0874 l -0.0046,0.0598 q -0.05523,0.86525 -0.124264,2.60034 l -0.0046,1.21503 q 0,0.5891 0.0046,0.86064 0.0046,0.0552 0.0092,0.11046 0.0046,0.0552 0.06903,0.069 0.0046,0 0.119662,0 0.414213,0 1.238041,-0.0414 0.82843,-0.046 1.24264,-0.046 0.12426,0 0.12426,0.10585 0,0.78701 -0.11506,1.3577 -0.023,0.11966 -0.0966,0.14267 -0.023,0.009 -0.1887,0.009 z" />
        <path
           id="path872"
           style="font-style:normal;font-variant:normal;font-weight:bold;font-stretch:normal;font-family:'Berlin Sans FB Demi';-inkscape-font-specification:'Berlin Sans FB Demi Bold';text-align:center;text-anchor:middle;fill:#c8b7b7;fill-opacity:0.806283;stroke:none;stroke-width:0.13206"
           d="m 102.98869,107.27059 q -0.023,0 -0.0644,-0.0184 -0.37279,-0.13347 -0.86525,-0.34057 -0.0322,-0.0184 -0.0322,-0.0782 0,-0.046 0.0138,-0.10125 0.63973,-2.19994 0.93428,-3.34593 l 0.5753,-2.23214 q 0.0644,-0.30836 0.21631,-0.91588 0.0276,-0.10125 0.0966,-0.10125 0.14267,0 0.53848,0.15648 0.42342,0.17029 0.42342,0.27614 0,0.0414 -0.41882,1.5418 -0.46024,1.64304 -0.49245,1.7581 -0.17489,0.68576 -0.54768,2.18153 -0.0782,0.38199 -0.28075,1.11837 -0.0322,0.10125 -0.0966,0.10125 z" />
        <path
           id="path874"
           style="font-style:normal;font-variant:normal;font-weight:bold;font-stretch:normal;font-family:'Berlin Sans FB Demi';-inkscape-font-specification:'Berlin Sans FB Demi Bold';text-align:center;text-anchor:middle;fill:#c8b7b7;fill-opacity:0.806283;stroke:none;stroke-width:0.13206"
           d="m 110.50436,106.04636 q 0,0.45103 -0.0414,0.53388 -0.0506,0.10125 -0.31296,0.10125 -0.0414,0 -0.1841,0 -0.13807,-0.005 -0.23472,-0.005 -0.0921,0 -0.28074,-0.009 -0.1841,-0.009 -0.27614,-0.009 -0.0736,0 -0.66275,-0.88366 -0.5891,-0.88365 -0.61211,-0.88825 -0.0967,0.0782 -0.66274,0.92967 -0.54308,0.81462 -0.63513,0.84224 -0.0644,0.0184 -0.34518,0.0184 -0.94348,0 -0.94348,-0.0966 0,-0.0966 -0.0138,-0.27614 -0.009,-0.1795 -0.009,-0.26694 0,-0.5707 0.069,-0.67195 0.005,-0.005 0.75939,-1.00792 0.61212,-0.81001 0.61212,-0.92507 0,-0.11506 -0.61212,-0.91127 -0.3866,-0.49245 -0.76859,-0.98951 -0.0414,-0.0598 -0.0506,-0.1979 -0.005,-0.0966 0,-0.26234 0.0138,-0.1979 0.0138,-0.22091 0,-0.0921 -0.0184,-0.28535 -0.0138,-0.1933 -0.0138,-0.28534 0,-0.0875 0.16109,-0.0875 0.10585,0 0.31296,0.0138 0.2071,0.0138 0.30835,0.0138 0.0921,0 0.27154,-0.009 0.1795,-0.009 0.26694,-0.009 0.0736,0 0.66735,0.89746 0.5983,0.89286 0.62592,0.89286 0.092,-0.0552 0.67655,-0.93889 0.55688,-0.85143 0.63972,-0.85143 h 1.09537 q 0.16108,0 0.16108,0.0782 v 1.11837 q 0,0.11966 -0.71337,1.04474 -0.70876,0.92507 -0.70876,0.9803 0,0.0782 0.62592,0.90667 0.73638,0.9711 0.7686,1.01712 0.0644,0.10126 0.0644,0.69956 z" />
        <path
           id="path876"
           style="font-style:normal;font-variant:normal;font-weight:bold;font-stretch:normal;font-family:'Berlin Sans FB Demi';-inkscape-font-specification:'Berlin Sans FB Demi Bold';text-align:center;text-anchor:middle;fill:#c8b7b7;fill-opacity:0.806283;stroke:none;stroke-width:0.13206"
           d="m 115.95356,105.22714 q 0,0.1979 -0.0782,0.72718 -0.0828,0.57529 -0.14728,0.68575 -0.0552,0.0874 -0.15187,0.0874 -0.0414,0 -0.13807,-0.0138 -0.33598,-0.046 -1.96061,-0.046 -0.35439,0 -1.05395,-0.005 -0.69956,-0.005 -1.04934,-0.005 -0.15187,0 -0.15187,-0.13347 0,-0.51547 0.0552,-1.5464 0.0598,-1.03553 0.0598,-1.55099 0,-0.52467 -0.0552,-1.95601 -0.0138,-0.36819 -0.0506,-1.09997 l -0.005,-0.0644 q -0.009,-0.10585 0.11506,-0.10585 0.34057,0 1.02172,0.0184 0.68576,0.0184 1.02633,0.0184 0.33597,0 1.01252,-0.0184 0.67655,-0.0184 1.01252,-0.0184 0.23933,0 0.27615,0.17949 0.023,0.10585 0.069,0.64433 0.0506,0.53387 0.0506,0.64893 0,0.0966 -0.0921,0.0966 -0.0276,0 -0.0966,-0.005 -1.22423,-0.10125 -2.19993,-0.10125 -0.24393,0 -0.29916,0.11506 -0.023,0.0552 -0.023,0.35438 0,0.31296 0.0921,0.41421 0.0782,0.0875 0.29915,0.0875 0.046,0 0.1795,-0.005 0.13346,-0.009 0.22091,-0.009 0.5799,0 1.1736,-0.0322 0.0506,-0.005 0.25313,-0.023 0.15648,-0.0184 0.24853,-0.0184 0.11046,0 0.11046,0.10586 0,-0.0966 -0.0828,0.70416 -0.0368,0.36819 -0.0368,0.73638 0,0.0921 -0.13347,0.0921 0,0 -0.41421,-0.046 -0.26234,-0.0276 -1.19662,-0.0276 h -0.48785 q -0.1887,0 -0.22091,0.0921 -0.005,0.023 -0.005,0.28534 0,0.34978 0.046,0.45103 0.0782,0.17489 0.5891,0.20711 -0.009,0 0.67195,0 0.24392,0 0.72257,-0.0414 0.48325,-0.046 0.72257,-0.046 0.10125,0 0.10125,0.16568 z" />
        <path
           id="path878"
           style="font-style:normal;font-variant:normal;font-weight:bold;font-stretch:normal;font-family:'Berlin Sans FB Demi';-inkscape-font-specification:'Berlin Sans FB Demi Bold';text-align:center;text-anchor:middle;fill:#c8b7b7;fill-opacity:0.806283;stroke:none;stroke-width:0.13206"
           d="m 124.9742,106.5112 q 0.009,0.12427 -0.12886,0.12427 -0.0874,0 -0.50626,-0.10126 -0.41422,-0.10125 -0.51087,-0.13807 -0.96189,0.3774 -1.84555,0.3774 -1.42213,0 -2.3334,-0.94809 -0.90206,-0.93428 -0.90206,-2.36102 0,-1.45895 0.87445,-2.42084 0.90206,-0.99411 2.3426,-0.99411 0.69956,0 1.31628,0.26693 0.66734,0.29456 1.04934,0.82843 0.0782,0.11046 0.0782,0.15648 0,0.14728 -0.41421,0.66274 -0.40961,0.51087 -0.52927,0.51087 -0.0276,0 -0.21171,-0.1887 -0.22552,-0.22552 -0.46024,-0.34978 -0.34978,-0.1887 -0.7732,-0.1887 -0.69035,0 -1.09536,0.51547 -0.3774,0.47404 -0.3774,1.1828 0,0.75019 0.39121,1.18742 0.405,0.45103 1.14599,0.45103 0.46944,0 1.04934,-0.23472 -0.0138,-0.15188 -0.0829,-0.7732 -0.0598,-0.47865 -0.0598,-0.7732 0,-0.0874 0.0598,-0.10585 0.023,-0.009 0.0736,-0.009 0.13347,0 0.40041,0.0276 0.27154,0.023 0.40961,0.023 0.14727,0 0.44182,-0.0184 0.29456,-0.023 0.44183,-0.023 0.11506,0 0.11506,0.15188 0,0.22091 -0.0276,0.66734 -0.023,0.44643 -0.023,0.66734 0,0.59371 0.0874,1.77652 z" />
        <path
           id="path880"
           style="font-style:normal;font-variant:normal;font-weight:bold;font-stretch:normal;font-family:'Berlin Sans FB Demi';-inkscape-font-specification:'Berlin Sans FB Demi Bold';text-align:center;text-anchor:middle;fill:#c8b7b7;fill-opacity:0.806283;stroke:none;stroke-width:0.13206"
           d="m 131.68906,106.54342 q 0,0.0828 -0.11506,0.11506 -0.13807,0.0368 -0.85604,0.0368 -0.65814,0 -0.84684,-0.0368 -0.15648,-0.0322 -0.1979,-0.20711 -0.15648,-0.66274 -0.24392,-0.70876 -0.0736,-0.0322 -1.23344,-0.0322 -0.7824,0 -0.83303,0.0414 -0.0782,0.0736 -0.17489,0.49245 -0.0874,0.382 -0.21171,0.41422 -0.15648,0.0368 -1.04934,0.0368 -0.70416,0 -0.70416,-0.13347 0,-0.11966 1.04014,-2.94092 1.12758,-3.05137 1.22423,-3.35512 0.0552,-0.17489 0.12886,-0.17489 0.12427,0 0.382,0.023 0.26234,0.023 0.3912,0.023 0.12427,0 0.36359,-0.0138 0.24392,-0.0184 0.36359,-0.0184 0.0874,0 0.16108,0.15187 0.22551,0.48325 1.31628,3.31371 1.09536,2.84886 1.09536,2.97313 z m -3.26308,-4.19276 q -0.0967,0.20251 -0.32677,0.87905 -0.24853,0.71797 -0.24853,0.84224 0,0.0828 0.27615,0.092 0.14267,0.009 0.46944,0.009 0.30375,0 0.33597,-0.0736 0.009,-0.023 0.009,-0.0644 0,-0.15188 -0.21171,-0.83763 -0.20711,-0.66274 -0.30376,-0.84684 z" />
        <path
           id="path882"
           style="font-style:normal;font-variant:normal;font-weight:bold;font-stretch:normal;font-family:'Berlin Sans FB Demi';-inkscape-font-specification:'Berlin Sans FB Demi Bold';text-align:center;text-anchor:middle;fill:#c8b7b7;fill-opacity:0.806283;stroke:none;stroke-width:0.13206"
           d="m 139.01603,106.5158 q 0,0.14268 -0.13347,0.14268 h -1.62924 q -0.13347,0 -0.13347,-0.16109 0,-0.46483 0.0322,-1.39451 0.0368,-0.92968 0.0368,-1.39452 0,-0.13347 -0.0414,-0.14267 -0.0506,0.0276 -0.61672,1.42213 -0.33137,0.81922 -0.66274,1.63384 -0.046,0.10585 -0.11506,0.12426 -0.023,0.005 -0.18409,0.005 -0.23933,0 -0.28535,-0.0921 -0.24853,-0.50626 -0.65354,-1.47276 -0.43262,-1.02173 -0.64893,-1.47736 -0.009,-0.023 -0.0414,-0.0506 -0.0322,0.0414 -0.0322,0.13347 0,0.45103 0.023,1.3531 0.023,0.90206 0.023,1.35309 0,0.16109 -0.12886,0.16109 h -1.53719 q -0.0921,0 -0.11506,-0.0276 -0.0184,-0.0322 -0.0184,-0.10585 0,-0.50166 0.046,-1.50498 0.0506,-1.00791 0.0506,-1.50957 0,-0.53388 -0.046,-2.00203 -0.005,-0.382 -0.0414,-1.13679 l -0.005,-0.0782 q -0.005,-0.092 0.1933,-0.092 0.25313,0 0.75939,-0.0138 0.50626,-0.0184 0.75939,-0.0184 0.0506,0 0.14267,0.1933 l 1.3439,2.95012 q 0.14267,0.29915 0.23932,0.29915 0.0506,0 0.21631,-0.34518 0.46484,-0.96649 1.37611,-2.9133 0.0782,-0.17949 0.17029,-0.17949 0.13347,0 0.4004,0.0138 0.27154,0.0138 0.40961,0.0138 0.11506,0 0.34978,-0.023 0.23933,-0.023 0.35439,-0.023 0.13807,0 0.13807,0.11046 0,0.54308 -0.0414,1.62463 -0.0368,1.07696 -0.0368,1.62004 0,0.50166 0.0414,1.50497 0.0414,1.00332 0.0414,1.50037 z" />
        <path
           id="path884"
           style="font-style:normal;font-variant:normal;font-weight:bold;font-stretch:normal;font-family:'Berlin Sans FB Demi';-inkscape-font-specification:'Berlin Sans FB Demi Bold';text-align:center;text-anchor:middle;fill:#c8b7b7;fill-opacity:0.806283;stroke:none;stroke-width:0.13206"
           d="m 144.58029,105.22714 q 0,0.1979 -0.0782,0.72718 -0.0828,0.57529 -0.14727,0.68575 -0.0552,0.0874 -0.15188,0.0874 -0.0414,0 -0.13807,-0.0138 -0.33598,-0.046 -1.96061,-0.046 -0.35438,0 -1.05394,-0.005 -0.69956,-0.005 -1.04934,-0.005 -0.15188,0 -0.15188,-0.13347 0,-0.51547 0.0552,-1.5464 0.0598,-1.03553 0.0598,-1.55099 0,-0.52467 -0.0552,-1.95601 -0.0138,-0.36819 -0.0506,-1.09997 l -0.005,-0.0644 q -0.009,-0.10585 0.11506,-0.10585 0.34058,0 1.02173,0.0184 0.68575,0.0184 1.02632,0.0184 0.33598,0 1.01252,-0.0184 0.67655,-0.0184 1.01253,-0.0184 0.23932,0 0.27614,0.17949 0.023,0.10585 0.069,0.64433 0.0506,0.53387 0.0506,0.64893 0,0.0966 -0.0921,0.0966 -0.0276,0 -0.0967,-0.005 -1.22423,-0.10125 -2.19993,-0.10125 -0.24393,0 -0.29915,0.11506 -0.023,0.0552 -0.023,0.35438 0,0.31296 0.0921,0.41421 0.0782,0.0875 0.29916,0.0875 0.046,0 0.17949,-0.005 0.13347,-0.009 0.22091,-0.009 0.5799,0 1.17361,-0.0322 0.0506,-0.005 0.25313,-0.023 0.15648,-0.0184 0.24852,-0.0184 0.11046,0 0.11046,0.10586 0,-0.0966 -0.0828,0.70416 -0.0368,0.36819 -0.0368,0.73638 0,0.0921 -0.13347,0.0921 0,0 -0.41421,-0.046 -0.26234,-0.0276 -1.19662,-0.0276 h -0.48785 q -0.1887,0 -0.22091,0.0921 -0.005,0.023 -0.005,0.28534 0,0.34978 0.046,0.45103 0.0782,0.17489 0.5891,0.20711 -0.009,0 0.67195,0 0.24392,0 0.72257,-0.0414 0.48325,-0.046 0.72257,-0.046 0.10125,0 0.10125,0.16568 z" />
      </g>
    </g>
  </g>
</svg>
